Min;71.04575163398692;71.67249417249417;75.83333333333333;72.44109047127624
Max;71.04575163398692;71.67249417249417;75.83333333333333;72.44109047127624
Mean;71.04575163398692;71.67249417249417;75.83333333333333;72.44109047127624
Median;71.04575163398692;71.67249417249417;75.83333333333333;72.44109047127624

SampleSplit;Accuracy;Precision;Recall;F1
0;71.04575163398692;71.67249417249417;75.83333333333333;72.44109047127624
