Min;68.03921568627452;68.41713841713842;73.47222222222223;69.9330690809019
Max;68.03921568627452;68.41713841713842;73.47222222222223;69.9330690809019
Mean;68.03921568627452;68.41713841713842;73.47222222222223;69.9330690809019
Median;68.03921568627452;68.41713841713842;73.47222222222223;69.9330690809019

SampleSplit;Accuracy;Precision;Recall;F1
0;68.03921568627452;68.41713841713842;73.47222222222223;69.9330690809019
