Min;50.0;0.0;0.0;0.0
Max;83.33333333333334;66.66666666666666;66.66666666666666;66.66666666666666
Mean;62.5;24.999999999999996;24.999999999999996;24.999999999999996
Median;58.33333333333333;16.666666666666664;16.666666666666664;16.666666666666664

SampleSplit;Accuracy;Precision;Recall;F1
1;83.33333333333334;66.66666666666666;66.66666666666666;66.66666666666666
2;50.0;0.0;0.0;0.0
3;66.66666666666666;33.33333333333333;33.33333333333333;33.33333333333333
4;50.0;0.0;0.0;0.0
