Min;50.0;10.0;20.0;20.0
Max;65.0;55.00000000000001;80.0;59.00000000000001
Mean;53.25;30.5;52.0;38.266666666666666
Median;50.0;30.0;55.0;36.666666666666664

SampleSplit;Accuracy;Precision;Recall;F1
5;65.0;53.333333333333336;70.0;59.00000000000001
15;62.5;55.00000000000001;60.0;59.00000000000001
25;55.00000000000001;36.666666666666664;40.0;51.33333333333334
35;50.0;10.0;70.0;40.0
45;50.0;25.0;20.0;33.33333333333333
55;50.0;20.0;40.0;26.666666666666668
65;50.0;35.0;50.0;26.666666666666668
75;50.0;20.0;60.0;20.0
85;50.0;15.0;80.0;40.0
95;50.0;35.0;30.0;26.666666666666668
