Min;44.44444444444444;0.0;0.0;0.0
Max;44.44444444444444;0.0;0.0;0.0
Mean;44.44444444444444;0.0;0.0;0.0
Median;44.44444444444444;0.0;0.0;0.0

SampleSplit;Accuracy;Precision;Recall;F1
0;44.44444444444444;0.0;0.0;0.0
