Min;50.0;0.0;0.0;0.0
Max;83.33333333333334;72.22222222222221;77.77777777777779;74.07407407407408
Mean;56.111111111111114;13.888888888888888;15.555555555555557;14.444444444444445
Median;50.0;0.0;0.0;0.0

SampleSplit;Accuracy;Precision;Recall;F1
5;77.77777777777779;66.66666666666666;77.77777777777779;70.37037037037037
15;83.33333333333334;72.22222222222221;77.77777777777779;74.07407407407408
25;50.0;0.0;0.0;0.0
35;50.0;0.0;0.0;0.0
45;50.0;0.0;0.0;0.0
55;50.0;0.0;0.0;0.0
65;50.0;0.0;0.0;0.0
75;50.0;0.0;0.0;0.0
85;50.0;0.0;0.0;0.0
95;50.0;0.0;0.0;0.0
