Min;38.88888888888889;16.666666666666664;33.33333333333333;22.22222222222222
Max;38.88888888888889;16.666666666666664;33.33333333333333;22.22222222222222
Mean;38.88888888888889;16.666666666666664;33.33333333333333;22.22222222222222
Median;38.88888888888889;16.666666666666664;33.33333333333333;22.22222222222222

SampleSplit;Accuracy;Precision;Recall;F1
0;38.88888888888889;16.666666666666664;33.33333333333333;22.22222222222222
