Min;79.70588235294119;77.83243007347866;82.3529411764706;80.40892274959938
Max;81.76470588235294;81.30836754404866;85.88235294117646;82.70704065131311
Mean;81.05882352941177;79.72122788374337;84.23529411764706;81.63737818664106
Median;81.1764705882353;79.89953102453103;84.41176470588235;81.81904506846459

SampleSplit;Accuracy;Precision;Recall;F1
5;81.17647058823529;79.01054885236807;85.29411764705883;82.22815411050706
15;80.88235294117648;79.89953102453103;84.70588235294117;82.01185348553771
25;81.1764705882353;79.89953102453103;84.11764705882354;81.65200500068921
35;81.47058823529413;80.00982514217809;85.29411764705883;82.0085112395484
45;81.47058823529413;79.87024519952908;85.88235294117646;82.70704065131311
55;80.29411764705883;77.83243007347866;84.70588235294117;81.00586257242604
65;81.76470588235294;80.50199641260014;83.52941176470587;81.48016008019212
75;81.47058823529412;81.30836754404866;82.94117647058823;81.98608513623995
85;81.17647058823529;80.78793183940243;82.3529411764706;80.88518684035762
95;79.70588235294119;78.09187172476646;83.52941176470588;80.40892274959938
