Min;77.94117647058823;75.70204576125629;80.0;78.14754174551439
Max;83.23529411764706;82.57784780578899;87.05882352941175;84.02709855225335
Mean;81.05882352941177;79.82769595852615;83.11764705882352;80.95811711532893
Median;81.3235294117647;80.22672797189051;82.35294117647058;80.79367657986079

SampleSplit;Accuracy;Precision;Recall;F1
5;83.23529411764706;80.2825814536341;87.05882352941175;82.1629335147137
15;82.94117647058825;80.17087449014694;86.47058823529412;81.61421976437457
25;82.64705882352942;82.18966533982014;85.88235294117646;83.5859875848266
35;82.6470588235294;81.08263919602929;83.52941176470588;84.02709855225335
45;82.35294117647058;82.57784780578899;81.76470588235294;80.84401344269766
55;79.41176470588236;81.16861488185017;80.58823529411765;80.74333971702391
65;80.0;79.76028920340066;80.0;78.47890702920415
75;80.29411764705883;78.35197194819956;81.17647058823529;79.63199353262272
85;79.11764705882354;76.99042950513538;82.35294117647058;80.34513627005829
95;77.94117647058823;75.70204576125629;82.35294117647058;78.14754174551439
