Min;73.33333333333334;67.10714285714286;95.0;77.65911865911865
Max;73.33333333333334;67.10714285714286;95.0;77.65911865911865
Mean;73.33333333333334;67.10714285714286;95.0;77.65911865911865
Median;73.33333333333334;67.10714285714286;95.0;77.65911865911865

SampleSplit;Accuracy;Precision;Recall;F1
0;73.33333333333334;67.10714285714286;95.0;77.65911865911865
