Min;56.111111111111114;55.00000000000001;23.499999999999996;32.38095238095238
Max;86.52777777777777;85.8809523809524;91.5;87.56132756132757
Mean;73.97569444444444;76.70535714285714;69.325;70.81217532467532
Median;70.76388888888889;74.66666666666667;63.5;66.97222222222223

SampleSplit;Accuracy;Precision;Recall;F1
1;75.83333333333333;85.0;63.0;71.15079365079364
2;56.111111111111114;55.00000000000001;23.499999999999996;32.38095238095238
3;73.6111111111111;79.66666666666666;64.5;68.9155844155844
4;84.30555555555556;85.50000000000001;84.5;84.00288600288602
5;86.52777777777777;85.8809523809524;91.5;87.56132756132757
6;82.77777777777777;85.38095238095238;84.00000000000001;82.83910533910534
7;84.02777777777777;83.3809523809524;89.0;85.06132756132757
8;82.6388888888889;84.04761904761905;84.00000000000001;82.99783549783551
9;85.0;85.04761904761902;88.5;85.72005772005772
10;82.6388888888889;84.04761904761905;84.00000000000001;82.99783549783551
11;82.77777777777779;81.71428571428571;88.5;83.72005772005772
12;82.77777777777777;82.54761904761902;86.5;83.27561327561328
13;81.80555555555556;78.38095238095238;90.99999999999999;83.52525252525254
14;81.66666666666667;81.04761904761905;86.5;82.44733044733046
15;79.44444444444446;76.88095238095237;86.5;80.46681096681098
16;73.6111111111111;78.38095238095238;68.5;70.47113997113999
17;72.6388888888889;74.21428571428571;71.0;70.35209235209236
18;69.02777777777777;72.54761904761905;63.5;65.35209235209236
19;69.02777777777777;72.54761904761905;63.5;65.35209235209236
20;68.88888888888889;73.0;61.0;64.69047619047619
21;68.88888888888889;73.0;61.0;64.69047619047619
22;70.0;74.66666666666667;61.0;65.4047619047619
23;68.88888888888889;73.0;61.0;64.69047619047619
24;70.0;74.66666666666667;61.0;65.4047619047619
25;70.0;74.66666666666667;61.0;65.4047619047619
26;70.0;74.66666666666667;61.0;65.4047619047619
27;70.0;74.66666666666667;61.0;65.4047619047619
28;70.0;74.66666666666667;61.0;65.4047619047619
29;70.0;74.66666666666667;61.0;65.4047619047619
30;70.0;74.66666666666667;61.0;65.4047619047619
31;70.0;74.66666666666667;61.0;65.4047619047619
32;70.0;74.66666666666667;61.0;65.4047619047619
33;68.88888888888889;73.0;61.0;64.69047619047619
34;68.88888888888889;73.0;61.0;64.69047619047619
35;70.1388888888889;73.5;63.5;66.07936507936508
36;70.1388888888889;73.5;63.5;66.07936507936508
37;71.38888888888889;74.33333333333333;65.99999999999999;67.86507936507937
38;71.38888888888889;74.33333333333333;65.99999999999999;67.86507936507937
39;72.6388888888889;74.83333333333333;68.5;69.25396825396825
40;72.6388888888889;74.83333333333333;68.5;69.25396825396825
