Min;56.25;56.25;87.5;66.66666666666666
Max;56.25;56.25;87.5;66.66666666666666
Mean;56.25;56.25;87.5;66.66666666666666
Median;56.25;56.25;87.5;66.66666666666666

SampleSplit;Accuracy;Precision;Recall;F1
0;56.25;56.25;87.5;66.66666666666666
