Min;67.89473684210526;73.0034965034965;44.111111111111114;56.41848863211092
Max;82.63157894736841;88.29761904761904;89.55555555555556;83.19132316958404
Mean;78.05263157894737;78.07583180708181;79.40277777777779;77.49301300769197
Median;78.1578947368421;77.23214285714286;80.33333333333333;78.95611616812317

SampleSplit;Accuracy;Precision;Recall;F1
1;72.63157894736842;84.17388167388167;56.8888888888889;66.42957695898872
2;67.89473684210526;86.4920634920635;44.111111111111114;56.41848863211092
3;74.73684210526315;88.29761904761904;58.88888888888888;69.31932773109243
4;81.05263157894737;81.1976911976912;81.0;80.82315637578795
5;80.0;77.05089355089355;85.33333333333333;80.674958729071
6;81.05263157894737;79.43001443001442;84.33333333333334;81.46559580770108
7;80.52631578947368;76.00233100233102;89.55555555555556;81.99726589200274
8;81.05263157894737;81.88023088023088;80.0;80.32581453634086
9;80.0;78.3510101010101;83.33333333333334;80.37244179968638
10;80.52631578947368;80.75901875901877;80.33333333333333;80.00438596491227
11;76.3157894736842;74.8416860916861;80.33333333333333;76.76228003162987
12;78.42105263157895;80.17316017316018;75.1111111111111;76.57094943240453
13;77.89473684210526;78.1832611832612;78.22222222222221;77.15914786967419
14;75.78947368421052;78.1832611832612;71.88888888888889;73.58410732714138
15;74.21052631578947;73.42393717393718;76.11111111111111;73.73310169362802
16;75.78947368421052;77.39285714285715;74.0;74.3140326305961
17;75.78947368421053;74.50757575757576;79.11111111111111;75.83660130718954
18;74.21052631578947;76.6017316017316;70.66666666666667;72.80546955624355
19;76.3157894736842;76.22294372294373;78.0;76.20426065162908
20;76.31578947368422;77.07142857142857;76.0;75.63784461152882
21;77.36842105263159;76.0959595959596;80.22222222222221;77.27067669172934
22;75.78947368421053;76.27020202020202;76.11111111111111;75.29775418939505
23;75.78947368421052;74.81313131313131;78.11111111111111;75.6703523514669
24;76.3157894736842;76.46464646464646;76.0;75.4548135043491
25;77.36842105263158;75.84226884226885;80.22222222222224;77.06770938040289
26;78.42105263157895;78.45021645021646;78.0;77.53341687552215
27;79.4736842105263;76.76082251082252;84.11111111111111;79.64338877496772
28;82.10526315789473;82.07828282828282;82.0;80.97699685934981
29;82.10526315789473;80.21070596070598;86.22222222222223;82.33137919199301
30;82.10526315789473;81.06568431568432;84.11111111111111;81.8371087565461
31;82.63157894736841;79.7940392940393;88.44444444444444;83.19132316958404
32;82.10526315789473;80.9917304917305;85.11111111111111;82.22272967157878
33;80.52631578947368;77.97974247974248;86.22222222222223;81.22861336476896
34;80.52631578947368;78.48090798090799;85.11111111111111;81.09874323489885
35;78.42105263157893;74.79170829170829;87.33333333333334;79.82312995928558
36;79.4736842105263;76.36746586746587;87.33333333333334;80.68460182075742
37;77.89473684210526;73.69230769230771;89.55555555555556;80.24672352818806
38;78.42105263157893;75.23076923076924;86.22222222222223;79.79001910728927
39;76.84210526315789;73.0034965034965;86.22222222222223;78.55078465752851
40;77.89473684210526;74.4125874125874;86.22222222222223;79.36144767871784
