Min;59.16666666666666;65.24242424242425;51.66666666666666;51.064256005432476
Max;74.16666666666666;83.21428571428571;73.33333333333334;73.67332667332667
Mean;69.25;75.3810606060606;64.33333333333334;65.69238424973719
Median;71.25;76.2224025974026;66.66666666666667;70.17128704628703

SampleSplit;Accuracy;Precision;Recall;F1
5;70.83333333333333;70.91666666666667;73.33333333333334;72.92840492840492
15;70.83333333333333;70.5;71.66666666666669;70.18115218115217
25;74.16666666666666;78.03571428571429;73.33333333333334;73.67332667332667
35;74.16666666666666;78.03571428571429;73.33333333333334;73.67332667332667
45;74.16666666666666;81.54761904761905;68.33333333333333;72.95904095904095
55;72.5;83.21428571428571;65.00000000000001;70.16142191142191
65;71.66666666666667;82.5;55.00000000000001;64.42424242424242
75;64.16666666666669;74.4090909090909;51.66666666666666;55.23885918003565
85;60.83333333333334;69.4090909090909;55.00000000000001;52.619811560988026
95;59.16666666666666;65.24242424242425;56.666666666666664;51.064256005432476
