Min;48.33333333333333;46.12698412698412;33.33333333333333;42.338383838383834
Max;65.00000000000001;68.55952380952381;83.33333333333333;67.8113063407181
Mean;57.020833333333336;57.67944624819625;60.916666666666664;56.740825187884006
Median;56.66666666666668;57.23809523809524;61.666666666666664;56.72453934953934

SampleSplit;Accuracy;Precision;Recall;F1
1;60.00000000000001;63.16666666666666;46.666666666666664;52.61616161616162
2;59.16666666666666;63.16666666666666;33.33333333333333;42.338383838383834
3;65.00000000000001;67.61904761904762;60.0;62.16239316239316
4;64.16666666666667;68.55952380952381;53.333333333333336;58.28971028971029
5;63.33333333333333;62.91269841269841;70.0;65.18381618381619
6;60.00000000000001;67.52380952380952;51.66666666666666;54.856365856365855
7;58.33333333333333;57.18253968253968;66.66666666666666;61.090909090909086
8;59.166666666666664;58.738095238095234;50.0;52.121212121212125
9;59.166666666666664;57.19444444444445;71.66666666666666;63.36530136530138
10;56.66666666666668;53.87301587301587;50.0;50.191530691530694
11;50.83333333333334;46.12698412698412;65.0;53.666666666666664
12;53.33333333333334;49.77380952380953;50.0;48.839049839049835
13;59.16666666666668;55.633116883116884;75.0;63.14032536091359
14;58.333333333333336;59.67857142857142;58.33333333333333;56.85964035964035
15;55.00000000000001;54.529942279942276;70.0;60.100948071536294
16;56.666666666666664;58.14285714285714;51.66666666666667;53.18592518592518
17;56.666666666666664;56.95851370851371;70.0;61.243555464143704
18;55.833333333333336;63.38888888888889;45.0;48.65512265512265
19;50.000000000000014;53.8888888888889;55.00000000000001;51.70454545454546
20;55.00000000000001;60.66666666666666;48.33333333333333;49.52886002886003
21;48.33333333333333;53.16450216450217;55.00000000000001;49.911989970813494
22;54.16666666666667;48.539682539682545;48.33333333333334;47.540015540015546
23;54.99999999999999;55.38492063492063;61.66666666666667;57.53879453879453
24;57.49999999999999;61.06349206349206;55.00000000000001;55.77855477855478
25;52.500000000000014;54.86904761904763;61.66666666666666;55.30586080586081
26;53.333333333333336;51.98412698412699;51.66666666666666;49.743589743589745
27;53.33333333333334;51.702380952380956;63.33333333333333;55.31379731379731
28;56.666666666666664;56.900793650793645;58.33333333333333;55.87190587190587
29;57.49999999999999;56.95021645021645;65.0;58.37513793396146
30;57.49999999999999;58.39285714285714;58.333333333333336;56.50086025086024
31;56.666666666666664;57.281746031746025;66.66666666666667;59.409951159951156
32;55.00000000000001;56.01190476190476;61.66666666666668;56.589438339438324
33;56.666666666666664;56.492424242424235;73.33333333333333;61.04225023342671
34;56.666666666666664;56.95238095238094;65.0;58.37606837606837
35;60.83333333333334;58.916666666666664;83.33333333333333;67.8113063407181
36;60.83333333333334;60.039682539682545;71.66666666666667;63.795787545787555
37;60.0;59.436868686868685;81.66666666666667;66.9412401324166
38;58.333333333333336;58.730158730158735;68.33333333333333;61.0558608058608
39;56.66666666666668;57.545815295815295;73.33333333333334;61.90039862098685
40;57.50000000000001;58.093434343434346;71.66666666666669;61.68977591036414
