Min;69.91228070175438;63.02671837965955;100.0;77.09040235127192
Max;69.91228070175438;63.02671837965955;100.0;77.09040235127192
Mean;69.91228070175438;63.02671837965955;100.0;77.09040235127192
Median;69.91228070175438;63.02671837965955;100.0;77.09040235127192

SampleSplit;Accuracy;Precision;Recall;F1
0;69.91228070175438;63.02671837965955;100.0;77.09040235127192
