Min;50.0;16.666666666666664;11.11111111111111;22.22222222222222
Max;66.66666666666666;55.55555555555556;77.77777777777779;62.96296296296296
Mean;51.666666666666664;27.777777777777775;43.33333333333333;35.18518518518518
Median;50.0;22.22222222222222;38.888888888888886;29.629629629629626

SampleSplit;Accuracy;Precision;Recall;F1
5;66.66666666666666;55.55555555555556;77.77777777777779;62.96296296296296
15;50.0;22.22222222222222;33.33333333333333;22.22222222222222
25;50.0;33.33333333333333;33.33333333333333;44.44444444444444
35;50.0;22.22222222222222;11.11111111111111;29.629629629629626
45;50.0;33.33333333333333;55.55555555555556;59.25925925925925
55;50.0;22.22222222222222;44.44444444444444;29.629629629629626
65;50.0;22.22222222222222;22.22222222222222;29.629629629629626
75;50.0;27.77777777777778;33.33333333333333;22.22222222222222
85;50.0;16.666666666666664;55.55555555555556;29.629629629629626
95;50.0;22.22222222222222;66.66666666666666;22.22222222222222
