Min;79.47089947089948;76.99616688780775;84.83516483516483;80.571462278915
Max;79.47089947089948;76.99616688780775;84.83516483516483;80.571462278915
Mean;79.47089947089948;76.99616688780775;84.83516483516483;80.571462278915
Median;79.47089947089948;76.99616688780775;84.83516483516483;80.571462278915

SampleSplit;Accuracy;Precision;Recall;F1
0;79.47089947089948;76.99616688780775;84.83516483516483;80.571462278915
