Min;80.58201058201058;80.70380354939178;81.20879120879121;80.61832665336559
Max;80.58201058201058;80.70380354939178;81.20879120879121;80.61832665336559
Mean;80.58201058201058;80.70380354939178;81.20879120879121;80.61832665336559
Median;80.58201058201058;80.70380354939178;81.20879120879121;80.61832665336559

SampleSplit;Accuracy;Precision;Recall;F1
0;80.58201058201058;80.70380354939178;81.20879120879121;80.61832665336559
