Min;74.76190476190476;75.0;82.5;77.16666666666667
Max;74.76190476190476;75.0;82.5;77.16666666666667
Mean;74.76190476190476;75.0;82.5;77.16666666666667
Median;74.76190476190476;75.0;82.5;77.16666666666667

SampleSplit;Accuracy;Precision;Recall;F1
0;74.76190476190476;75.0;82.5;77.16666666666667
