Min;50.0;0.0;0.0;0.0
Max;70.0;55.00000000000001;60.0;53.333333333333336
Mean;52.5;8.5;9.0;8.333333333333334
Median;50.0;0.0;0.0;0.0

SampleSplit;Accuracy;Precision;Recall;F1
5;70.0;55.00000000000001;60.0;53.333333333333336
15;55.00000000000001;30.0;30.0;30.0
25;50.0;0.0;0.0;0.0
35;50.0;0.0;0.0;0.0
45;50.0;0.0;0.0;0.0
55;50.0;0.0;0.0;0.0
65;50.0;0.0;0.0;0.0
75;50.0;0.0;0.0;0.0
85;50.0;0.0;0.0;0.0
95;50.0;0.0;0.0;0.0
