Min;52.142857142857146;51.1352258852259;55.714285714285715;52.15268554974437
Max;52.142857142857146;51.1352258852259;55.714285714285715;52.15268554974437
Mean;52.142857142857146;51.1352258852259;55.714285714285715;52.15268554974437
Median;52.142857142857146;51.1352258852259;55.714285714285715;52.15268554974437

SampleSplit;Accuracy;Precision;Recall;F1
0;52.142857142857146;51.1352258852259;55.714285714285715;52.15268554974437
