Min;54.28571428571429;56.68470418470418;51.42857142857142;51.848719907543426
Max;66.42857142857143;64.76190476190476;82.85714285714285;70.34523809523809
Mean;60.642857142857146;61.40422077922078;64.14285714285714;60.561915767411115
Median;60.71428571428571;62.25000000000001;60.71428571428571;59.37545787545787

SampleSplit;Accuracy;Precision;Recall;F1
5;54.28571428571429;56.68470418470418;51.42857142857142;51.848719907543426
15;55.00000000000001;56.68470418470418;51.42857142857142;51.848719907543426
25;57.857142857142854;60.642857142857146;52.85714285714285;54.15684315684316
35;58.57142857142858;62.0;52.85714285714285;53.81468531468532
45;59.285714285714285;62.500000000000014;57.14285714285714;55.93589743589743
55;62.857142857142854;64.23809523809524;64.28571428571428;62.8150183150183
65;65.0;63.63095238095238;70.0;66.09706959706959
75;66.42857142857143;64.76190476190476;78.57142857142857;70.34523809523809
85;65.0;62.63492063492062;80.0;69.64145658263305
95;62.14285714285713;60.26406926406926;82.85714285714285;69.11550936163938
