Min;55.00000000000001;52.966200466200476;94.28571428571428;67.6842105263158
Max;55.00000000000001;52.966200466200476;94.28571428571428;67.6842105263158
Mean;55.00000000000001;52.966200466200476;94.28571428571428;67.6842105263158
Median;55.00000000000001;52.966200466200476;94.28571428571428;67.6842105263158

SampleSplit;Accuracy;Precision;Recall;F1
0;55.00000000000001;52.966200466200476;94.28571428571428;67.6842105263158
