Min;75.0;75.0;83.33333333333334;77.77777777777777
Max;75.0;75.0;83.33333333333334;77.77777777777777
Mean;75.0;75.0;83.33333333333334;77.77777777777777
Median;75.0;75.0;83.33333333333334;77.77777777777777

SampleSplit;Accuracy;Precision;Recall;F1
0;75.0;75.0;83.33333333333334;77.77777777777777
