Min;91.66666666666666;83.33333333333334;83.33333333333334;83.33333333333334
Max;91.66666666666666;83.33333333333334;83.33333333333334;83.33333333333334
Mean;91.66666666666666;83.33333333333334;83.33333333333334;83.33333333333334
Median;91.66666666666666;83.33333333333334;83.33333333333334;83.33333333333334

SampleSplit;Accuracy;Precision;Recall;F1
0;91.66666666666666;83.33333333333334;83.33333333333334;83.33333333333334
