Min;83.33333333333334;75.0;83.33333333333334;77.77777777777777
Max;83.33333333333334;75.0;83.33333333333334;77.77777777777777
Mean;83.33333333333334;75.0;83.33333333333334;77.77777777777777
Median;83.33333333333334;75.0;83.33333333333334;77.77777777777777

SampleSplit;Accuracy;Precision;Recall;F1
0;83.33333333333334;75.0;83.33333333333334;77.77777777777777
