Min;48.66666666666667;20.0;20.0;26.35046113306983
Max;83.33333333333334;82.61363636363637;88.75000000000001;83.9468524251806
Mean;75.11904761904762;73.8903318903319;71.41071428571429;72.68711525159902
Median;79.14285714285714;79.50793650793652;75.26785714285714;78.28682604804895

SampleSplit;Accuracy;Precision;Recall;F1
5;82.04761904761904;82.61363636363637;88.75000000000001;83.80950774371826
15;83.33333333333334;80.55555555555556;84.46428571428571;83.9468524251806
25;82.61904761904762;79.8888888888889;83.03571428571429;81.38878304358181
35;80.57142857142857;79.12698412698414;83.03571428571426;78.73240021072839
45;80.57142857142857;81.38888888888889;73.03571428571428;77.84125188536952
55;77.71428571428572;78.54761904761904;76.07142857142858;76.92122746534511
65;76.33333333333334;78.61904761904762;74.46428571428571;78.98560752972517
75;74.14285714285714;80.52380952380952;71.78571428571429;69.00694919115972
85;65.19047619047619;77.63888888888889;59.464285714285715;69.8881118881119
95;48.66666666666667;20.0;20.0;26.35046113306983
