Min;52.19047619047619;52.10317460317461;33.92857142857142;43.418803418803414
Max;72.19047619047619;83.4047619047619;83.57142857142857;73.01517273576097
Mean;61.910714285714285;61.965196608946606;65.36160714285714;62.28717209647937
Median;62.28571428571429;60.19660894660895;62.85714285714286;63.301750537044654

SampleSplit;Accuracy;Precision;Recall;F1
1;64.61904761904762;71.85714285714286;50.357142857142854;58.04362304362305
2;61.09523809523809;68.0;33.92857142857142;43.418803418803414
3;72.19047619047619;83.4047619047619;57.67857142857142;64.84493284493284
4;71.80952380952381;73.32142857142857;67.67857142857142;68.97469197469196
5;71.0;68.49458874458875;79.82142857142857;73.01517273576097
6;69.71428571428572;72.83333333333333;63.035714285714285;67.12454212454213
7;64.66666666666667;63.57936507936508;69.82142857142858;65.9997845291963
8;64.66666666666667;65.73809523809524;60.17857142857144;62.04212454212454
9;65.23809523809526;62.81998556998557;73.57142857142857;67.1781225310637
10;62.61904761904762;65.28571428571428;53.39285714285714;57.35098235098235
11;63.19047619047618;61.99422799422799;68.03571428571428;64.03479853479853
12;65.33333333333334;66.28571428571429;62.5;63.77289377289378
13;62.52380952380954;60.26406926406926;70.89285714285715;64.45098039215685
14;66.0;67.7579365079365;62.67857142857143;64.22619047619047
15;68.80952380952381;66.65476190476191;76.42857142857142;70.84292178409825
16;70.80952380952381;70.17857142857143;72.32142857142857;70.92673992673991
17;70.90476190476191;68.66125541125541;79.28571428571428;72.9890469008116
18;70.28571428571428;68.83333333333333;75.17857142857143;71.20028011204481
19;65.38095238095238;61.66666666666666;83.57142857142857;70.71155830753354
20;65.52380952380952;63.276334776334785;75.53571428571428;68.23134381957911
21;62.04761904761905;59.02020202020203;78.39285714285712;67.08333333333333
22;61.1904761904762;59.18903318903319;69.82142857142857;63.58433886375063
23;61.19047619047618;58.17676767676768;78.21428571428571;66.40273477812177
24;61.19047619047618;59.42676767676767;69.64285714285714;63.01916221033868
25;62.57142857142858;60.12914862914863;78.03571428571428;67.23859989339864
26;59.90476190476189;59.22655122655123;68.57142857142856;62.67857142857143
27;58.47619047619047;56.891053391053404;71.42857142857142;62.83889871738169
28;54.9047619047619;56.01767676767676;57.14285714285714;55.430499239322764
29;56.238095238095234;55.93253968253967;62.67857142857143;58.18141499023851
30;56.14285714285714;56.27597402597403;56.9642857142857;55.54936729936729
31;56.85714285714285;57.04978354978355;62.5;58.83381814264167
32;54.142857142857146;55.095238095238095;54.46428571428571;53.89792070674424
33;54.80952380952381;55.12698412698413;59.821428571428584;56.776610644257694
34;54.76190476190476;55.12698412698411;58.392857142857146;56.011042878689935
35;54.76190476190476;54.76984126984126;61.07142857142858;57.01244343891402
36;55.47619047619048;55.841269841269835;58.392857142857146;56.391995259642314
37;54.80952380952381;54.76984126984126;61.07142857142856;57.22899159663866
38;54.85714285714286;54.48412698412698;56.785714285714285;55.1482683982684
39;53.52380952380952;53.047619047619044;59.64285714285713;55.53202189966896
40;52.19047619047619;52.10317460317461;55.53571428571429;53.26731601731603
