Min;74.28571428571428;74.11796536796535;58.21428571428571;69.71628371628371
Max;77.04761904761905;89.90476190476191;77.67857142857142;77.23601707889632
Mean;75.61428571428571;84.05883838383839;67.51785714285714;72.50586790230753
Median;75.6904761904762;84.36652236652236;67.85714285714285;72.709938668143

SampleSplit;Accuracy;Precision;Recall;F1
5;74.28571428571428;74.11796536796535;76.25;74.32667641955567
15;75.66666666666666;78.34415584415584;76.25;74.45127241179873
25;77.04761904761905;80.8997113997114;77.67857142857142;77.23601707889632
35;74.95238095238096;78.87445887445888;76.42857142857142;74.7597009114037
45;75.66666666666669;82.5108225108225;72.14285714285712;74.25465040635319
55;75.66666666666669;86.22222222222223;63.57142857142857;71.16522692993281
65;75.71428571428571;89.90476190476191;58.21428571428571;69.71628371628371
75;75.71428571428571;89.90476190476191;58.21428571428571;69.71628371628371
85;75.71428571428571;89.90476190476191;58.21428571428571;69.71628371628371
95;75.71428571428571;89.90476190476191;58.21428571428571;69.71628371628371
