Min;81.9047619047619;82.75;81.96428571428571;80.99015200485788
Max;81.9047619047619;82.75;81.96428571428571;80.99015200485788
Mean;81.9047619047619;82.75;81.96428571428571;80.99015200485788
Median;81.9047619047619;82.75;81.96428571428571;80.99015200485788

SampleSplit;Accuracy;Precision;Recall;F1
0;81.9047619047619;82.75;81.96428571428571;80.99015200485788
