Min;72.6470588235294;73.92712842712842;70.83333333333334;71.28508771929825
Max;72.6470588235294;73.92712842712842;70.83333333333334;71.28508771929825
Mean;72.6470588235294;73.92712842712842;70.83333333333334;71.28508771929825
Median;72.6470588235294;73.92712842712842;70.83333333333334;71.28508771929825

SampleSplit;Accuracy;Precision;Recall;F1
0;72.6470588235294;73.92712842712842;70.83333333333334;71.28508771929825
