Min;56.654411764705884;58.33513708513709;20.97222222222222;30.200466200466202
Max;74.375;78.33333333333333;85.41666666666666;76.88430849074945
Mean;65.73621323529412;67.84491272616273;64.22222222222223;64.44936636048327
Median;66.76470588235294;69.488455988456;64.44444444444444;66.24869819722761

SampleSplit;Accuracy;Precision;Recall;F1
1;60.44117647058823;78.33333333333333;33.05555555555556;44.22510822510823
2;56.76470588235294;69.66666666666667;20.97222222222222;30.200466200466202
3;64.19117647058823;71.25;46.94444444444444;54.844239094239086
4;67.09558823529412;69.07539682539682;63.74999999999999;65.50375278316454
5;71.36029411764706;69.36163836163837;80.41666666666666;73.40971756142035
6;70.73529411764706;72.74603174603175;69.72222222222221;70.54600301659126
7;71.39705882352942;70.06457431457433;80.83333333333333;74.38880288957688
8;69.59558823529412;69.61507936507935;72.36111111111111;70.68997248022015
9;74.375;70.739898989899;85.41666666666666;76.88430849074945
10;71.91176470588235;72.05555555555556;76.94444444444444;73.93950562681214
11;74.30147058823529;73.15132090132089;81.66666666666667;76.53481631887205
12;70.03676470588236;72.25613275613276;69.58333333333333;70.36461251167134
13;71.94852941176471;70.7972582972583;76.94444444444444;73.30013759889921
14;67.64705882352942;69.41883116883118;66.94444444444446;67.56613347093221
15;70.69852941176471;70.4069264069264;74.44444444444444;72.09391124871001
16;67.68382352941177;70.07142857142858;65.83333333333334;67.08905937543707
17;67.72058823529412;66.99603174603175;70.83333333333334;68.65935672514621
18;66.43382352941177;68.82539682539682;64.72222222222223;66.31824659688436
19;68.23529411764706;68.46825396825398;71.94444444444444;69.59103641456582
20;68.86029411764706;70.92316017316016;66.94444444444446;68.22008547008546
21;68.23529411764706;69.95490620490621;69.44444444444444;68.8597483527824
22;68.125;70.45093795093796;64.44444444444444;66.62422080843132
23;69.41176470588235;71.10173160173161;69.44444444444444;69.59581646423752
24;67.53676470588236;70.56601731601731;64.44444444444444;66.17914979757084
25;66.36029411764706;68.01839826839827;66.94444444444446;66.68757016976829
26;65.18382352941177;69.8953823953824;59.86111111111111;62.897196199053774
27;65.18382352941177;69.55808080808082;60.97222222222223;63.379222342844635
28;63.97058823529412;68.95093795093794;57.36111111111111;60.93578342881748
29;65.25735294117648;67.13744588744589;63.61111111111111;64.71249201434959
30;63.345588235294116;66.44300144300145;56.388888888888886;59.90736740040145
31;60.91911764705882;61.85966810966811;58.75;59.321735711828595
32;62.169117647058826;63.19047619047618;56.388888888888886;58.83730158730158
33;60.29411764705882;60.33982683982684;62.5;60.72626418988648
34;60.220588235294116;62.119047619047606;58.75;59.62624793507146
35;61.43382352941177;63.626984126984134;62.22222222222222;62.03894634776987
36;57.205882352941174;59.18831168831169;54.02777777777777;55.440099116569705
37;60.29411764705882;60.86291486291485;63.61111111111111;61.67390289449113
38;56.654411764705884;58.33513708513709;56.388888888888886;56.61321195144725
39;57.83088235294118;58.351370851370845;63.33333333333333;60.29178338001866
40;58.382352941176464;59.62301587301587;59.72222222222222;59.25732222713647
