Min;41.42857142857142;42.5;25.0;30.428571428571434
Max;78.57142857142857;77.83333333333333;97.5;80.6031746031746
Mean;66.10714285714285;64.14285714285714;72.8125;65.29491341991341
Median;68.57142857142857;65.91666666666666;77.08333333333333;70.2593795093795

SampleSplit;Accuracy;Precision;Recall;F1
1;65.71428571428571;61.66666666666666;45.0;50.23809523809524
2;64.28571428571428;72.5;34.166666666666664;44.16666666666667
3;61.42857142857143;64.16666666666666;34.166666666666664;42.16666666666666
4;48.57142857142858;51.83333333333333;31.666666666666664;35.547619047619044
5;41.42857142857142;42.5;48.33333333333333;43.174603174603185
6;45.714285714285715;46.666666666666664;25.0;30.428571428571434
7;48.57142857142856;44.666666666666664;50.0;45.714285714285715
8;60.0;60.16666666666667;44.16666666666666;48.21428571428571
9;60.00000000000001;59.00000000000001;60.83333333333333;57.89682539682539
10;61.42857142857143;66.5;54.166666666666664;54.95238095238096
11;70.0;73.0;71.66666666666666;69.69841269841271
12;68.57142857142857;74.49999999999999;66.66666666666666;66.19841269841271
13;71.42857142857142;74.16666666666666;77.5;71.38888888888889
14;72.85714285714285;77.0;74.16666666666666;70.34920634920636
15;75.71428571428571;75.0;89.16666666666666;78.46031746031746
16;78.57142857142857;77.83333333333333;89.16666666666666;80.42063492063492
17;72.85714285714285;68.16666666666667;89.16666666666666;76.07936507936508
18;71.42857142857142;69.16666666666667;83.33333333333333;73.91269841269839
19;70.0;66.66666666666667;83.33333333333333;72.84126984126983
20;70.0;67.5;80.0;71.24603174603173
21;74.28571428571428;70.0;89.16666666666666;77.24603174603175
22;74.28571428571428;70.0;89.16666666666666;77.24603174603175
23;72.85714285714285;67.33333333333333;91.66666666666666;77.0873015873016
24;71.42857142857142;67.66666666666666;86.66666666666666;75.19841269841268
25;75.7142857142857;69.83333333333333;97.5;80.6031746031746
26;72.85714285714285;69.16666666666667;87.5;76.15079365079364
27;71.42857142857142;66.66666666666666;92.5;76.53174603174602
28;71.42857142857142;67.33333333333333;89.16666666666666;75.6984126984127
29;70.0;65.33333333333331;89.16666666666666;74.5873015873016
30;68.57142857142857;65.16666666666666;84.16666666666666;72.42063492063492
31;67.14285714285714;62.16666666666667;90.0;72.6825396825397
32;62.857142857142854;57.00000000000001;72.5;62.420634920634924
33;67.14285714285714;59.333333333333336;90.0;71.00000000000001
34;64.28571428571428;60.16666666666667;73.33333333333333;65.27777777777779
35;67.14285714285714;61.880952380952394;85.0;70.16955266955266
36;68.57142857142857;64.33333333333333;76.66666666666666;68.96825396825396
37;61.42857142857142;57.333333333333336;76.66666666666666;64.96825396825396
38;64.28571428571429;59.66666666666667;76.66666666666666;66.41269841269842
39;57.14285714285714;52.666666666666664;76.66666666666666;61.76984126984127
40;62.857142857142854;60.0;66.66666666666666;62.26190476190476
