Min;51.42857142857142;52.666666666666664;85.0;63.28354978354979
Max;51.42857142857142;52.666666666666664;85.0;63.28354978354979
Mean;51.42857142857142;52.666666666666664;85.0;63.28354978354979
Median;51.42857142857142;52.666666666666664;85.0;63.28354978354979

SampleSplit;Accuracy;Precision;Recall;F1
0;51.42857142857142;52.666666666666664;85.0;63.28354978354979
