Min;74.28571428571428;77.66666666666666;76.66666666666666;75.42063492063491
Max;74.28571428571428;77.66666666666666;76.66666666666666;75.42063492063491
Mean;74.28571428571428;77.66666666666666;76.66666666666666;75.42063492063491
Median;74.28571428571428;77.66666666666666;76.66666666666666;75.42063492063491

SampleSplit;Accuracy;Precision;Recall;F1
0;74.28571428571428;77.66666666666666;76.66666666666666;75.42063492063491
