Min;60.0;50.0;55.00000000000001;50.0
Max;60.0;50.0;55.00000000000001;50.0
Mean;60.0;50.0;55.00000000000001;50.0
Median;60.0;50.0;55.00000000000001;50.0

SampleSplit;Accuracy;Precision;Recall;F1
0;60.0;50.0;55.00000000000001;50.0
