Min;76.66666666666666;70.0;90.0;76.66666666666667
Max;76.66666666666666;70.0;90.0;76.66666666666667
Mean;76.66666666666666;70.0;90.0;76.66666666666667
Median;76.66666666666666;70.0;90.0;76.66666666666667

SampleSplit;Accuracy;Precision;Recall;F1
0;76.66666666666666;70.0;90.0;76.66666666666667
