Min;58.36320893329415;54.86982540598746;95.87108013937282;69.763094231611
Max;58.36320893329415;54.86982540598746;95.87108013937282;69.763094231611
Mean;58.36320893329415;54.86982540598746;95.87108013937282;69.763094231611
Median;58.36320893329415;54.86982540598746;95.87108013937282;69.763094231611

SampleSplit;Accuracy;Precision;Recall;F1
0;58.36320893329415;54.86982540598746;95.87108013937282;69.763094231611
