Min;75.23655598001764;73.28963536989096;77.91521486643438;75.96599050658403
Max;77.42580076403173;75.39097506209598;84.48896631823463;78.96477179453096
Mean;76.47634440199823;74.47401790492697;81.76190476190477;77.68904115881395
Median;76.51116661769028;74.42863542141656;81.69279907084785;77.682886531961

SampleSplit;Accuracy;Precision;Recall;F1
5;75.23655598001764;74.38378696555155;77.91521486643438;75.96599050658403
15;76.44872171613282;75.20905085250398;80.82462253193961;77.63956376362684
25;76.57361151924773;75.1716270772208;81.07433217189316;77.68601174697065
35;76.9365265941816;75.39097506209598;81.3240418118467;77.90906962215834
45;77.18042903320598;75.33298500562844;81.56794425087108;78.14220323578816
55;77.0584778136938;74.47348387728157;83.26945412311267;78.37749406335345
65;77.42580076403173;74.30880428717656;84.48896631823463;78.96477179453096
75;75.84484278577726;73.28963536989096;83.27526132404182;77.67976131695137
85;75.96826329709081;73.59322669200718;82.06155632984901;77.25399891517252
95;76.090214516603;73.58660385991264;81.81765389082463;77.27154662300319
