Min;75.60681751395828;73.24647801584675;75.0232288037166;76.09279875093769
Max;77.78430796356157;77.86473997716953;81.09175377468061;77.62173707250713
Mean;76.51454598883339;75.64664608601336;78.69047619047619;77.00526747373017
Median;76.27167205406994;75.2135535322465;79.15795586527294;76.95148710508971

SampleSplit;Accuracy;Precision;Recall;F1
5;75.60681751395828;73.24647801584675;81.09175377468061;77.40128406176758
15;75.73170731707319;74.06505923228836;79.88385598141696;76.90757894111127
25;76.21951219512195;74.64598326769712;80.36004645760745;77.2712767806219
35;75.9741404642962;74.24613111418155;79.39024390243902;76.6864956703957
45;75.85071995298266;74.22632423517044;79.15795586527294;77.33293839319248
55;76.94093446958566;75.78112379679587;79.15795586527294;76.92364910408494
65;77.78283867176022;77.17942775757137;78.18234610917537;77.62173707250713
75;77.78430796356157;77.86473997716953;77.93263646922183;76.83559085658851
85;76.93064942697619;77.59779052648031;76.72473867595818;76.97932510609448
95;76.32383191301793;77.61340293693235;75.0232288037166;76.09279875093769
