Min;62.95454545454546;64.79761904761905;36.666666666666664;48.857142857142854
Max;73.63636363636364;83.33333333333333;94.66666666666667;78.22527472527473
Mean;66.24242424242425;69.92619047619047;67.4;63.27438117438117
Median;65.64393939393939;66.95833333333334;64.33333333333334;62.84634809634809

SampleSplit;Accuracy;Precision;Recall;F1
5;63.787878787878796;67.19047619047619;60.33333333333333;61.149184149184144
15;62.95454545454546;66.14285714285714;61.999999999999986;62.733433233433225
25;63.03030303030304;65.35714285714286;65.33333333333333;60.55394605394605
35;68.18181818181819;69.97619047619048;63.33333333333334;62.95926295926295
45;68.25757575757576;66.72619047619048;82.33333333333334;71.21794871794872
55;73.63636363636364;67.60714285714286;94.66666666666667;78.22527472527473
65;65.68181818181819;64.79761904761905;86.33333333333333;69.09523809523809
75;65.68181818181819;64.79761904761905;86.33333333333333;69.09523809523809
85;65.6060606060606;83.33333333333333;36.666666666666664;48.857142857142854
95;65.6060606060606;83.33333333333333;36.666666666666664;48.857142857142854
