Min;44.00000000000001;17.0;30.0;30.476190476190474
Max;71.66666666666666;84.33333333333334;75.0;76.45238095238096
Mean;50.7;36.766666666666666;54.0;42.14047619047619
Median;46.0;22.000000000000004;56.66666666666667;34.22619047619048

SampleSplit;Accuracy;Precision;Recall;F1
5;71.66666666666666;84.33333333333334;75.0;76.45238095238096
15;62.66666666666667;65.99999999999999;60.0;61.83333333333333
25;58.666666666666664;65.0;53.333333333333336;55.49999999999999
35;46.0;37.333333333333336;61.66666666666666;37.26190476190476
45;44.00000000000001;17.0;50.0;30.476190476190474
55;44.00000000000001;18.0;30.0;30.476190476190474
65;44.00000000000001;17.0;40.0;30.476190476190474
75;46.00000000000001;22.000000000000004;60.0;30.476190476190474
85;46.0;22.000000000000004;60.0;37.142857142857146
95;44.00000000000001;19.0;50.0;31.30952380952381
